{
    "craftmen" : [
        {
            "id":"1",
            "name":"Peter Petit",
            "firstname":"Peter",
            "nick":"Peter",
            "title":"verkoop",
            "email":"ppetit@xebia.com",
            "small-picture":"PeterPetit.jpg",
            "big-picture":"PeterPetit.jpg",
            "linkedin-url":"",
            "github-url":"",
            "twitter-url":"",
            "gplus-url":"",
            "abstract":"<p></p>",
            "spanleft":7,
            "spanright":5
        },
        {
            "id":"2",
            "name":"Gerard Janssen",
            "firstname":"Gerard",
            "nick":"Gerard",
            "title":"unit management",
            "email":"gjanssen@xebia.com",
            "small-picture":"GerardJanssen.jpg",
            "big-picture":"GerardJanssen.jpg",
            "linkedin-url":"",
            "github-url":"",
            "twitter-url":"",
            "gplus-url":"",
            "abstract":"<p></p><p></p>",
            "spanleft":7,
            "spanright":5
        },
        {
            "id":"3",
            "name":"Elgert Verhoef",
            "firstname":"Elgert",
            "nick":"Elgert",
            "title":"projectmanagement",
            "email":"everhoef@xebia.com",
            "small-picture":"ElgertVerhoef.jpg",
            "big-picture":"ElgertVerhoef.jpg",
            "linkedin-url":"",
            "github-url":"",
            "twitter-url":"",
            "gplus-url":"",
            "abstract":"<p></p>",
            "spanleft":7,
            "spanright":5
        },
        {
            "id":"4",
            "name":"Age Mooij",
            "firstname":"Age",
            "nick":"Age",
            "title":"ontwikkelaar",
            "email":"amooij@xebia.com",
            "small-picture":"AgeMooij.jpg",
            "big-picture":"AgeMooij.jpg",
            "linkedin-url":"",
            "github-url":"",
            "twitter-url":"",
            "gplus-url":"",
            "abstract":"<p></p>",
            "spanleft":7,
            "spanright":5
        },
        {
            "id":"5",
            "name":"Alexander Bij",
            "firstname":"Alexander",
            "nick":"Alexander",
            "title":"ontwikkelaar",
            "email":"abij@xebia.com",
            "small-picture":"AlexAnderBij.jpg",
            "big-picture":"AlexAnderBij.jpg",
            "linkedin-url":"",
            "github-url":"",
            "twitter-url":"",
            "gplus-url":"",
            "abstract":"<p></p>",
            "spanleft":7,
            "spanright":5   
        },
        {
            "id":"5",
            "name":"Andrew Snare",
            "firstname":"Andrew",
            "nick":"Andrew",
            "title":"ontwikkelaar",
            "email":"asnare@xebia.com",
            "small-picture":"AndrewSnare.jpg",
            "big-picture":"AndrewSnare.jpg",
            "linkedin-url":"",
            "github-url":"",
            "twitter-url":"",
            "gplus-url":"",
            "abstract":"<p></p>",
            "spanleft":7,
            "spanright":5
        },
        {
            "id":"6",
            "name":"Arjan Molenaar",
            "firstname":"Arjan",
            "nick":"Arjan",
            "title":"ontwikkelaar",
            "email":"amolenaar@xebia.com",
            "small-picture":"ArjanMolenaar.jpg",
            "big-picture":"ArjanMolenaar.jpg",
            "linkedin-url":"",
            "github-url":"",
            "twitter-url":"",
            "gplus-url":"",
            "abstract":"<p></p>",
            "spanleft":7,
            "spanright":5
        },
        {
            "id":"7",
            "name":"Arnold Lankamp",
            "firstname":"Arnold",
            "nick":"Arnold",
            "title":"ontwikkelaar",
            "email":"alankamp@xebia.com",
            "small-picture":"ArnoldLankamp.jpg",
            "big-picture":"ArnoldLankamp.jpg",
            "linkedin-url":"",
            "github-url":"",
            "twitter-url":"",
            "gplus-url":"",
            "abstract":"<p></p>",
            "spanleft":7,
            "spanright":5
        },
        {
            "id":"8",
            "name":"Arnout Engelen",
            "firstname":"Arnout",
            "nick":"Arnout",
            "title":"ontwikkelaar",
            "email":"aengelen@xebia.com",
            "small-picture":"ArnoutEngelen.jpg",
            "big-picture":"ArnoutEngelen.jpg",
            "linkedin-url":"",
            "github-url":"",
            "twitter-url":"",
            "gplus-url":"",
            "abstract":"<p></p>",
            "spanleft":7,
            "spanright":5
        },
        {
            "id":"9",
            "name":"Barend Garvelink",
            "firstname":"Barend",
            "nick":"Barend",
            "title":"ontwikkelaar",
            "email":"bgarvelink@xebia.com",
            "small-picture":"BarendGarvelink.jpg",
            "big-picture":"BarendGarvelink.jpg",
            "linkedin-url":"",
            "github-url":"",
            "twitter-url":"",
            "gplus-url":"",
            "abstract":"<p></p>",
            "spanleft":7,
            "spanright":5
        },
        {
            "id":"10",
            "name":"Bram Neijt",
            "firstname":"Bram",
            "nick":"Bram",
            "title":"ontwikkelaar",
            "email":"bneijt@xebia.com",
            "small-picture":"BramNeijt.jpg",
            "big-picture":"BramNeijt.jpg",
            "linkedin-url":"",
            "github-url":"",
            "twitter-url":"",
            "gplus-url":"",
            "abstract":"<p></p>",
            "spanleft":7,
            "spanright":5
        },
        {
            "id":"11",
            "name":"Cirilo Wortel",
            "firstname":"Cirilo",
            "nick":"Cirilo",
            "title":"tester",
            "email":"cwortel@xebia.com",
            "small-picture":"CiriloWortel.jpg",
            "big-picture":"CiriloWortel.jpg",
            "linkedin-url":"",
            "github-url":"",
            "twitter-url":"",
            "gplus-url":"",
            "abstract":"<p></p>",
            "spanleft":7,
            "spanright":5
        },
        {
            "id":"12",
            "name":"Constantijn",
            "firstname":"Constantijn",
            "nick":"Constantijn",
            "title":"ontwikkelaar",
            "email":"",
            "small-picture":"Constantijn.jpg",
            "big-picture":"Constantijn.jpg",
            "linkedin-url":"",
            "github-url":"",
            "twitter-url":"",
            "gplus-url":"",
            "abstract":"<p></p>",
            "spanleft":7,
            "spanright":5
        },
        {
            "id":"13",
            "name":"Frank Visser",
            "firstname":"Frank",
            "nick":"Frank",
            "title":"ontwikkelaar",
            "email":"fvisser@xebia.com",
            "small-picture":"FrankVisser.jpg",
            "big-picture":"FrankVisser.jpg",
            "linkedin-url":"",
            "github-url":"",
            "twitter-url":"",
            "gplus-url":"",
            "abstract":"<p></p>",
            "spanleft":7,
            "spanright":5
        },
        {
            "id":"14",
            "name":"Freek",
            "firstname":"Freek",
            "nick":"Freek",
            "title":"ontwikkelaar",
            "email":"",
            "small-picture":"Freek.jpg",
            "big-picture":"Freek.jpg",
            "linkedin-url":"",
            "github-url":"",
            "twitter-url":"",
            "gplus-url":"",
            "abstract":"<p></p>",
            "spanleft":7,
            "spanright":5
        },
        {
            "id":"15",
            "name":"Friso van Vollenhoven",
            "firstname":"Friso",
            "nick":"Friso",
            "title":"ontwikkelaar",
            "email":"",
            "small-picture":"FrisovanVollenhoven.jpg",
            "big-picture":"FrisovanVollenhoven.jpg",
            "linkedin-url":"",
            "github-url":"",
            "twitter-url":"",
            "gplus-url":"",
            "abstract":"<p></p>",
            "spanleft":7,
            "spanright":5
        },
        {
            "id":"16",
            "name":"Jeroen Leenarts",
            "firstname":"Jeroen",
            "nick":"Jeroen",
            "title":"ontwikkelaar",
            "email":"jleenarts@xebia.com",
            "small-picture":"JeroenLeenarts.jpg",
            "big-picture":"JeroenLeenarts.jpg",
            "linkedin-url":"",
            "github-url":"",
            "twitter-url":"",
            "gplus-url":"",
            "abstract":"<p></p>",
            "spanleft":7,
            "spanright":5
        },
        {
            "id":"18",
            "name":"Jonatan Samoocha",
            "firstname":"Jonathan",
            "nick":"Jonathan",
            "title":"ontwikkelaar",
            "email":"",
            "small-picture":"JonatanSamoocha.jpg",
            "big-picture":"JonatanSamoocha.jpg",
            "linkedin-url":"",
            "github-url":"",
            "twitter-url":"",
            "gplus-url":"",
            "abstract":"<p></p>",
            "spanleft":7,
            "spanright":5
        },
        {
            "id":"19",
            "name":"Kishen",
            "firstname":"Kishen",
            "nick":"Kishen",
            "title":"tester",
            "email":"",
            "small-picture":"Kishen.jpg",
            "big-picture":"Kishen.jpg",
            "linkedin-url":"",
            "github-url":"",
            "twitter-url":"",
            "gplus-url":"",
            "abstract":"<p></p>",
            "spanleft":7,
            "spanright":5
        },
        {
            "id":"20",
            "name":"Kris Geuzebroek",
            "firstname":"Kris",
            "nick":"Kris",
            "title":"ontwikkelaar",
            "email":"",
            "small-picture":"KrisGeuzebroek.jpg",
            "big-picture":"KrisGeuzebroek.jpg",
            "linkedin-url":"",
            "github-url":"",
            "twitter-url":"",
            "gplus-url":"",
            "abstract":"<p></p>",
            "spanleft":7,
            "spanright":5
        },
        {
            "id":"21",
            "name":"Maarten Winkels",
            "firstname":"Maarten",
            "nick":"Maarten",
            "title":"ontwikkelaar",
            "email":"",
            "small-picture":"MaartenWinkels.jpg",
            "big-picture":"MaartenWinkels.jpg",
            "linkedin-url":"",
            "github-url":"",
            "twitter-url":"",
            "gplus-url":"",
            "abstract":"<p></p>",
            "spanleft":7,
            "spanright":5
        },
        {
            "id":"22",
            "name":"Marcus Martina",
            "firstname":"Marcus",
            "nick":"Marcus",
            "title":"ontwikkelaar",
            "email":"",
            "small-picture":"MarcusMartina.jpg",
            "big-picture":"MarcusMartina.jpg",
            "linkedin-url":"",
            "github-url":"",
            "twitter-url":"",
            "gplus-url":"",
            "abstract":"<p></p>",
            "spanleft":7,
            "spanright":5
        },
        {
            "id":"23",
            "name":"Mischa Dasberg",
            "firstname":"Misha",
            "nick":"Misha",
            "title":"ontwikkelaar",
            "email":"mdasberg@xebia.com",
            "small-picture":"MischaDasberg.jpg",
            "big-picture":"MischaDasberg.jpg",
            "linkedin-url":"",
            "github-url":"",
            "twitter-url":"",
            "gplus-url":"",
            "abstract":"<p></p>",
            "spanleft":7,
            "spanright":5
        },
        {
            "id":"24",
            "name":"Nanne Baars",
            "firstname":"Nanne",
            "nick":"Nanne",
            "title":"ontwikkelaar",
            "email":"nbaars@xebia.com",
            "small-picture":"NanneBaars.jpg",
            "big-picture":"ManneBaars.jpg",
            "linkedin-url":"",
            "github-url":"",
            "twitter-url":"",
            "gplus-url":"",
            "abstract":"<p></p>",
            "spanleft":7,
            "spanright":5
        },
        {
            "id":"25",
            "name":"Rob Dielemans",
            "firstname":"Rob",
            "nick":"Rob",
            "title":"verkoop",
            "email":"rdielemans@xebia.com",
            "small-picture":"RobDielemans.jpg",
            "big-picture":"RobDielemans.jpg",
            "linkedin-url":"",
            "github-url":"",
            "twitter-url":"",
            "gplus-url":"",
            "abstract":"<p></p>",
            "spanleft":7,
            "spanright":5
        },
        {
            "id":"26",
            "name":"Robert van Loghem",
            "firstname":"Robert",
            "nick":"Robert",
            "title":"ontwikkelaar",
            "email":"",
            "small-picture":"RobertvanLoghem.jpg",
            "big-picture":"RobertvanLoghem.jpg",
            "linkedin-url":"",
            "github-url":"",
            "twitter-url":"",
            "gplus-url":"",
            "abstract":"<p></p>",
            "spanleft":7,
            "spanright":5
        },
        {
            "id":"27",
            "name":"Ron van Weverwijk",
            "firstname":"Ron",
            "nick":"Ron",
            "title":"ontwikkelaar",
            "email":"",
            "small-picture":"RonvanWeverwijk.jpg",
            "big-picture":"RonvanWeverwijk.jpg",
            "linkedin-url":"",
            "github-url":"",
            "twitter-url":"",
            "gplus-url":"",
            "abstract":"<p></p>",
            "spanleft":7,
            "spanright":5
        },
        {
            "id":"28",
            "name":"Roy Bos",
            "firstname":"Roy",
            "nick":"Roy",
            "title":"ontwikkelaar",
            "email":"rbos@xebia.com",
            "small-picture":"RoyBos.jpg",
            "big-picture":"RoyBos.jpg",
            "linkedin-url":"",
            "github-url":"",
            "twitter-url":"",
            "gplus-url":"",
            "abstract":"<p></p>",
            "spanleft":7,
            "spanright":5
        },
        {
            "id":"29",
            "name":"Sannie Kwakman",
            "firstname":"Sannie",
            "nick":"Sannie",
            "title":"ontwikkelaar",
            "email":"skwakman@xebia.com",
            "small-picture":"SannieKwakman.jpg",
            "big-picture":"SannyKwakman.jpg",
            "linkedin-url":"",
            "github-url":"",
            "twitter-url":"",
            "gplus-url":"",
            "abstract":"<p></p>",
            "spanleft":7,
            "spanright":5
        },
        {
            "id":"30",
            "name":"Gerbrand van Dieijen",
            "firstname":"Gerbrand",
            "nick":"Gerbrand",
            "title":"ontwikkelaar",
            "email":"",
            "small-picture":"GerbrandvanDieijen.jpg",
            "big-picture":"GerbrandvanDieijen.jpg",
            "linkedin-url":"",
            "github-url":"",
            "twitter-url":"",
            "gplus-url":"",
            "abstract":"<p></p>",
            "spanleft":7,
            "spanright":5
        }
    ]
}
